{
    "page": 2,
    "total_results": 83,
    "total_pages": 5,
    "results": [
        {
            "known_for_department": "Production",
            "id": 2368741,
            "name": "John Matrix",
            "known_for": [
                {
                    "poster_path": "\/6fmRBhHq4oQ0WCkSvzYXKbRvoT0.jpg",
                    "vote_count": 0,
                    "video": false,
                    "media_type": "movie",
                    "id": 617643,
                    "adult": false,
                    "genre_ids": [],
                    "original_title": "CIA Assassin: First Contract",
                    "original_language": "en",
                    "title": "CIA Assassin: First Contract",
                    "vote_average": 0,
                    "overview": "Paul Pounder (a.k.a. Agent 69) has seen better days. His age has caught up with him and he struggles to get work from the Agency. However, his string of bad luck is about to change. In the past three months, fifteen female C.I.A. agents have been found shot or dtabbed to death. Hidden video surveillance cameras captured Maizah Samar, an Arab who works for the Russians, in the act of fleeing the scenes at the same time as several agents had been killed.  C.I.A. Agen 0015 meets with Agent 69 to brief him on the murders. While thumbing through pictures of the dead women provided to him by 0015, Agent 69 discovers his fuck buddy, Agent 96, is one of the victims found shot to death. Looking at her bullet-riddled body, he recalls the wild sex and good times they had together. Shocked and grief stricken upon seeing the photos, Agent 69 is anxious to stop Maizah Samar. He accepts his First Contract, and so the story begins...",
                    "release_date": "2010-07-16"
                }
            ],
            "popularity": 0.6,
            "profile_path": null,
            "gender": 0,
            "media_type": "person",
            "adult": false
        },
        {
            "known_for_department": "Acting",
            "id": 1351398,
            "name": "Jenny Matrix",
            "known_for": [],
            "popularity": 0.6,
            "profile_path": null,
            "gender": 0,
            "media_type": "person",
            "adult": false
        },
        {
            "known_for_department": "Acting",
            "id": 1677871,
            "name": "Jason Matrix",
            "known_for": [
                {
                    "vote_count": 0,
                    "id": 415442,
                    "video": false,
                    "media_type": "movie",
                    "vote_average": 0,
                    "title": "Avengers vs X-Men XXX: An Axel Braun Parody",
                    "release_date": "2015-12-22",
                    "original_language": "en",
                    "original_title": "Avengers vs X-Men XXX: An Axel Braun Parody",
                    "genre_ids": [],
                    "backdrop_path": null,
                    "adult": true,
                    "overview": "It's the most anticipated superhero clash of the century...and it's a porn parody! Legendary director Axel Braun and adult powerhouse Vivid Entertainment proudly bring to life every porn loving comic-book geek's wet dream in the blockbuster \"Avengers vs X-Men XXX Parody\", and it's even more awesome than you imagined. So grab your lube bottle and watch your favorite superheroes square off in more ways than one in the movie Hollywood never dared to make!",
                    "poster_path": "\/l9MAIuNloZVABm0rSzpNRW4tFMl.jpg"
                },
                {
                    "vote_count": 0,
                    "id": 533689,
                    "video": false,
                    "media_type": "movie",
                    "vote_average": 0,
                    "title": "Hard Erotic Massage",
                    "release_date": "2013-01-01",
                    "original_language": "en",
                    "original_title": "Hard Erotic Massage",
                    "genre_ids": [],
                    "backdrop_path": null,
                    "adult": true,
                    "overview": "Hardcore movie by Penthouse. There is also a softcore edit.",
                    "poster_path": null
                }
            ],
            "popularity": 0.6,
            "profile_path": null,
            "adult": true,
            "media_type": "person",
            "gender": 2
        },
        {
            "known_for_department": "Acting",
            "id": 2421553,
            "name": "Susan Matrix",
            "known_for": [
                {
                    "vote_count": 0,
                    "id": 635271,
                    "video": false,
                    "media_type": "movie",
                    "vote_average": 0,
                    "title": "At the Club",
                    "release_date": "1996-01-01",
                    "original_language": "en",
                    "original_title": "At the Club",
                    "genre_ids": [],
                    "backdrop_path": null,
                    "adult": true,
                    "overview": "A spontanious visit to a club brings the Ultravixens Dolly and Dalia into the hottest situations! On every level, behind every door Dolly and her friends discover explosive action, even the attractive manager of the club is talked into hot pool-action... Dolly guaranties as always great cast, fist and lesbo-action, anal-drilling at it's best, and with a \"hot as fire\" sandwich she proves that she can easiely get two \"hot dogs\" to glow... enjoy...",
                    "poster_path": "\/K7HcWd6b0VnhYDMOk1bBZazcr.jpg"
                }
            ],
            "popularity": 0.6,
            "profile_path": null,
            "adult": true,
            "media_type": "person",
            "gender": 0
        },
        {
            "known_for_department": "Acting",
            "id": 1670705,
            "name": "Giovanni Matrix",
            "known_for": [
                {
                    "vote_count": 0,
                    "id": 412952,
                    "video": false,
                    "media_type": "movie",
                    "vote_average": 0,
                    "title": "Pump & Dump",
                    "release_date": "2016-07-22",
                    "original_language": "en",
                    "original_title": "Pump & Dump",
                    "genre_ids": [],
                    "backdrop_path": "\/imCfN8AN6UudIqtzht91NKy3pre.jpg",
                    "adult": true,
                    "overview": "The Lucas Men are always ready for a good “Pump & Dump” and we have all of the incredible bareback sex caught on camera! Damon Heart fulfills one of his porn-star wishes and gets to roll around in the sack with Adam Killian. Derek Allan turns Zander Craze’s mouth and ass into his personal fuck-holes. Javi Velaro gets his ass thrashed by Logan Rogue’s uncut cock. And Giovanni Matrix makes Jesse Vos his barebacking bottom slut. Could you handle a “Pump & Dump” from one of the Lucas Men?",
                    "poster_path": "\/99xX0yl7w5jCPs1mILbLGqNyzn9.jpg"
                },
                {
                    "vote_count": 0,
                    "id": 412954,
                    "video": false,
                    "media_type": "movie",
                    "vote_average": 0,
                    "title": "Cock Craze",
                    "release_date": "2016-06-24",
                    "original_language": "en",
                    "original_title": "Cock Craze",
                    "genre_ids": [],
                    "backdrop_path": "\/7SNWrzfO4tsok4ufw55XIQwd7Yb.jpg",
                    "adult": true,
                    "overview": "There’s always “Cock Craze” on the Lucas Entertainment set, but it’s never been wilder than when Zander Craze is there to stir things up! And Zander certainly has his hands full at that: he’s got the rock-hard cocks of Stas Landon and Rafael Carreras to contend with in a bareback threesome. Following the cock-crazed three-way, Giovanni Matrix bends over Logan Rogue for a raw-dogging. Diego Summers visits the set to rough up Derek Allan’s throat and hole. And Dylan James gets rough and sweaty with Mario Domenech in a clash of two awesome gym bods. Can you handle the “Cock Craze”?",
                    "poster_path": "\/sIXDnAEkItDvsT4ljIDbqAjaMxC.jpg"
                },
                {
                    "vote_count": 0,
                    "id": 412955,
                    "video": false,
                    "media_type": "movie",
                    "vote_average": 0,
                    "title": "Nutt In The Butt",
                    "release_date": "2016-06-10",
                    "original_language": "en",
                    "original_title": "Nutt In The Butt",
                    "genre_ids": [],
                    "backdrop_path": "\/4WBoN8shFjBdFZCF8f89aaG0afE.jpg",
                    "adult": true,
                    "overview": "How cum-hungry do you have to be to take a “Nutt In The Butt”? The Lucas Men are here to answer the question! Damon Heart fulfills his need for daddy dick, and it’s Tomas Brand who gives him a raw uncut load. The handsome and suave James Castle gets a taste of Derek Allan’s Mexican spunk. Lucas Entertainment welcomes the handsome Russian beefcake Stas Landon by pairing him up with porn legend Adam Killian. And Giovanni Matrix finishes us off by shooting his “Nutt” in exclusive model Javi Velaro’s “Butt”!",
                    "poster_path": "\/kNpN1nOqROzSn6wOqixZsBsltYs.jpg"
                }
            ],
            "popularity": 0.6,
            "profile_path": "\/jHPmST8Yh3hjhDb5fI2w49xlAot.jpg",
            "adult": true,
            "media_type": "person",
            "gender": 2
        },
        {
            "poster_path": "\/wx2s9xYeC6uP2auuuVg99yl4RpU.jpg",
            "popularity": 0.6,
            "vote_count": 1,
            "video": false,
            "media_type": "movie",
            "id": 373223,
            "adult": false,
            "backdrop_path": null,
            "original_language": "en",
            "original_title": "Matrix",
            "genre_ids": [],
            "title": "Matrix",
            "vote_average": 1,
            "overview": "Abstract art film made for gallery exhibition.",
            "release_date": "1973-09-06"
        },
        {
            "poster_path": null,
            "popularity": 0.6,
            "vote_count": 0,
            "video": false,
            "media_type": "movie",
            "id": 411948,
            "adult": false,
            "backdrop_path": null,
            "original_language": "en",
            "original_title": "Matrix",
            "genre_ids": [],
            "title": "Matrix",
            "vote_average": 0,
            "overview": "John Whitney, Sr. (April 8, 1917 – September 22, 1995) was an American animator, composer and inventor, widely considered to be one of the fathers of computer animation.",
            "release_date": "1971-05-18"
        },
        {
            "vote_count": 0,
            "popularity": 0.6,
            "id": 555879,
            "video": false,
            "media_type": "movie",
            "vote_average": 0,
            "title": "Matrix",
            "release_date": "1998-12-31",
            "original_language": "en",
            "original_title": "Matrix",
            "genre_ids": [],
            "backdrop_path": null,
            "adult": false,
            "overview": "The film is composed of receding planes in a landscape: a back garden and the houses beyond. The wooden lattice fence, visible in the image, marks the border between enclosed and open, private and public space, and forms both a fulcrum for the work and a formal grid by which the shots are framed and organised.",
            "poster_path": "\/AfFD10ZqEx2vkxM2yvRZkybsGB7.jpg"
        },
        {
            "known_for_department": "Acting",
            "id": 2419953,
            "name": "Matrix Naovaratpong",
            "known_for": [
                {
                    "vote_count": 0,
                    "id": 594676,
                    "video": false,
                    "media_type": "movie",
                    "vote_average": 0,
                    "title": "Hope Frozen",
                    "release_date": "2019-04-27",
                    "original_language": "en",
                    "original_title": "Hope Frozen",
                    "genre_ids": [
                        99
                    ],
                    "backdrop_path": null,
                    "adult": false,
                    "overview": "A Buddhist scientist from Bangkok decides to cryo-preserve his daughter's brain. As scandal swirls around the family, they struggle to grieve a child that, in their view, is suspended between death and a future reawakening.",
                    "poster_path": "\/1sCawwtBif3Ggt6sr4DXG7SYf8d.jpg"
                }
            ],
            "popularity": 0.6,
            "profile_path": null,
            "adult": false,
            "media_type": "person",
            "gender": 0
        },
        {
            "poster_path": "\/ydEBvI3tAp719EbHvhBDUcU3k3V.jpg",
            "popularity": 0.963,
            "vote_count": 4,
            "video": false,
            "media_type": "movie",
            "id": 119742,
            "adult": false,
            "backdrop_path": null,
            "original_language": "de",
            "original_title": "The Living Matrix",
            "genre_ids": [
                99
            ],
            "title": "The Living Matrix",
            "vote_average": 6,
            "overview": "Becker's documentary presents the arguments of the new-age practice of \"bio-energetic medicine.\"  Presented as a medical documentary, The Living Matrix, promotes healing through energy reading and manipulation.  Director Greg Becker presents his arguments through anecdotal patient stories, and interviews with parapsychology professionals.",
            "release_date": "2009-10-22"
        },
        {
            "original_name": "Matrix Chiambretti",
            "id": 68447,
            "media_type": "tv",
            "name": "Matrix Chiambretti",
            "popularity": 0.6,
            "vote_count": 0,
            "vote_average": 0,
            "first_air_date": "2016-10-07",
            "poster_path": null,
            "genre_ids": [
                10767
            ],
            "original_language": "it",
            "backdrop_path": null,
            "overview": "",
            "origin_country": [
                "IT"
            ]
        },
        {
            "poster_path": "\/iBxdPaM2ViRK36WdprG6muKHeT3.jpg",
            "popularity": 0.6,
            "vote_count": 0,
            "video": false,
            "media_type": "movie",
            "id": 386137,
            "adult": false,
            "backdrop_path": "\/gN1MGTNHGIPTxAgyTiJkNrfvU8U.jpg",
            "original_language": "cs",
            "original_title": "Matrix AB",
            "genre_ids": [
                99
            ],
            "title": "Matrix AB",
            "vote_average": 0,
            "overview": "",
            "release_date": "2015-10-29"
        },
        {
            "poster_path": "\/mSA91zntAssOuzGiakE3foA1MM0.jpg",
            "popularity": 0.666,
            "vote_count": 0,
            "video": false,
            "media_type": "movie",
            "id": 141225,
            "adult": false,
            "backdrop_path": "\/a26L15v3ruoy22jFMgVjwpcraVh.jpg",
            "original_language": "hu",
            "original_title": "Buhera mátrix",
            "genre_ids": [],
            "title": "Buhera mátrix",
            "vote_average": 0,
            "overview": "",
            "release_date": "2007-03-29"
        },
        {
            "original_name": "Approval Matrix",
            "id": 38368,
            "media_type": "tv",
            "name": "Approval Matrix",
            "popularity": 0.6,
            "vote_count": 0,
            "vote_average": 0,
            "first_air_date": "2011-02-16",
            "poster_path": null,
            "genre_ids": [],
            "original_language": "en",
            "backdrop_path": null,
            "overview": "",
            "origin_country": [
                "US"
            ]
        },
        {
            "poster_path": "\/msSIxWLXhfiLEUlAJ9t6keqEHRC.jpg",
            "popularity": 0.6,
            "vote_count": 6,
            "video": false,
            "media_type": "movie",
            "id": 393587,
            "adult": false,
            "backdrop_path": null,
            "original_language": "en",
            "original_title": "Matrix III",
            "genre_ids": [
                16
            ],
            "title": "Matrix III",
            "vote_average": 7.2,
            "overview": "An abstract computer-generated animation set to music by Terry Riley.",
            "release_date": "1972-01-01"
        },
        {
            "vote_count": 0,
            "popularity": 0.6,
            "id": 486584,
            "video": false,
            "media_type": "movie",
            "vote_average": 0,
            "title": "Dot Matrix",
            "release_date": "2017-01-01",
            "original_language": "en",
            "original_title": "Dot Matrix",
            "genre_ids": [],
            "backdrop_path": null,
            "adult": false,
            "overview": "Dot Matrix is a sound and image composition of two 16mm film tracks, made by hand in a darkroom, without digital intervention. The projectors become instruments that read the images as waveforms. Colorful and fun circles are menacing when played back as sound.",
            "poster_path": null
        },
        {
            "poster_path": null,
            "popularity": 0.6,
            "vote_count": 0,
            "video": false,
            "media_type": "movie",
            "id": 285435,
            "adult": false,
            "backdrop_path": null,
            "original_language": "en",
            "original_title": "Dot Matrix",
            "genre_ids": [],
            "title": "Dot Matrix",
            "vote_average": 0,
            "overview": "In 2012, Richard Tuohy made \"Screen Tone\" using patterns of dots printed straight to 16mm film. By doubling this principle in \"Dot Matrix\", a third, dizzying moire pattern and a deafening noise develops in the flicker (alternating black and white frames) because the dots also pass by the sound head.",
            "release_date": "2013-08-05"
        },
        {
            "poster_path": null,
            "popularity": 0.6,
            "vote_count": 0,
            "video": false,
            "media_type": "movie",
            "id": 702435,
            "adult": false,
            "backdrop_path": null,
            "original_language": "ko",
            "original_title": "E32 Matrix",
            "genre_ids": [],
            "title": "E32 Matrix",
            "vote_average": 0,
            "overview": "",
            "release_date": ""
        },
        {
            "original_name": "Paranormal Matrix",
            "id": 18401,
            "media_type": "tv",
            "name": "Paranormal Matrix",
            "popularity": 0.6,
            "vote_count": 0,
            "vote_average": 0,
            "first_air_date": "",
            "poster_path": null,
            "genre_ids": [],
            "original_language": "en",
            "backdrop_path": null,
            "overview": "",
            "origin_country": []
        },
        {
            "vote_count": 0,
            "popularity": 0.6,
            "id": 560403,
            "video": false,
            "media_type": "movie",
            "vote_average": 0,
            "title": "Skin Matrix",
            "release_date": "1984-05-05",
            "original_language": "en",
            "original_title": "Skin Matrix",
            "genre_ids": [],
            "backdrop_path": null,
            "adult": false,
            "overview": "Emshwiller writes that the visually complex and densely textured Skin Matrix is a \"video tapestry... a layering of different manifestations of energy: electronic (light, video, computer), inorganic (dunes, rocks, mud), organic (wood, plants), human (skin, hair), individual (faces, eyes), imagination (sculpture, robot).\" His intricate electronic transformations of tactile surfaces, landscapes and human faces signify a metaphysical process that simultaneously masks and reveals; he achieves an uncanny spatial illusion of depth through layering and movement. Creating sophisticated image patterns and structures with the simple Bally Arcade computer (used for playing video games), Emshwiller weaves together the lush textures and kinetic energy of the organic and the technological.",
            "poster_path": "\/olKcWYqELJUmhDYj6E4KBM5WgMN.jpg"
        }
    ]
}
